[
  {
    "name": "Zhythomir",
    "weather": "Clear Sky",
    "lat" : "44.2",
    "lon" : "12.1"
  },

  {
    "name": "Kiev",
    "weather": "Clear Sky",
    "lat" : "50.584981",
    "lon" : "30.235748"
  },


  {
    "name" : "Lviv",
    "weather": "Clear Sky",
    "lat" : "44.2",
    "lon" : "12.1"
  },


  {
    "name": "Dnepr",
    "weather": "Clear Sky",
    "lat" : "44.2",
    "lon" : "12.1"
  },


  {
    "name" : "Donetsk",
    "weather": "Clear Sky",
    "lat" : "44.2",
    "lon" : "12.1"
  }
]